<svg xmlns="http://www.w3.org/2000/svg" width="40" height="40" viewBox="0 0 40 40">
  <g id="Gruppe_2285" data-name="Gruppe 2285" transform="translate(-1553 -915)">
    <circle id="Ellipse_2" data-name="Ellipse 2" cx="20" cy="20" r="20" transform="translate(1553 915)" fill="#4d7eb5"/>
    <path id="Pfad_22" data-name="Pfad 22" d="M20.556,4.111H16.667L15.556,3H10L8.889,4.111H5V6.333H20.556M6.111,20.778A2.222,2.222,0,0,0,8.333,23h8.889a2.222,2.222,0,0,0,2.222-2.222V7.444H6.111Z" transform="translate(1560 922)" fill="#f9f9f9"/>
  </g>
</svg>
